[backblue.gif]
[fade.gif]
[index.html]
[192.168.43.21/img/work-desk__dustin-lee.jpg]
[192.168.43.21/img/y-logo-white.png]
[192.168.43.21/index.html]
[192.168.43.21/tp/jquery-3.3.1.min.js]
[192.168.43.21/tp/fontawesome-free-5.8.1-web/webfonts/fa-brands-400.eot]
[192.168.43.21/tp/fontawesome-free-5.8.1-web/webfonts/fa-brands-400d41d.eot]
[192.168.43.21/tp/fontawesome-free-5.8.1-web/webfonts/fa-brands-400.woff2]
[192.168.43.21/tp/fontawesome-free-5.8.1-web/webfonts/fa-brands-400.woff]
[192.168.43.21/tp/fontawesome-free-5.8.1-web/webfonts/fa-brands-400.ttf]
[192.168.43.21/tp/fontawesome-free-5.8.1-web/webfonts/fa-regular-400.eot]
[192.168.43.21/tp/fontawesome-free-5.8.1-web/webfonts/fa-regular-400d41d.eot]
[192.168.43.21/tp/fontawesome-free-5.8.1-web/webfonts/fa-regular-400.woff2]
[192.168.43.21/tp/fontawesome-free-5.8.1-web/webfonts/fa-regular-400.woff]
[192.168.43.21/tp/fontawesome-free-5.8.1-web/webfonts/fa-regular-400.ttf]
[192.168.43.21/tp/fontawesome-free-5.8.1-web/webfonts/fa-solid-900.eot]
[192.168.43.21/tp/fontawesome-free-5.8.1-web/webfonts/fa-solid-900d41d.eot]
[192.168.43.21/tp/fontawesome-free-5.8.1-web/webfonts/fa-solid-900.woff2]
[192.168.43.21/tp/fontawesome-free-5.8.1-web/webfonts/fa-solid-900.woff]
[192.168.43.21/tp/fontawesome-free-5.8.1-web/webfonts/fa-solid-900.ttf]
[192.168.43.21/tp/fontawesome-free-5.8.1-web/css/all.css]
[192.168.43.21/tp/fontawesome-free-5.8.1-web/webfonts/fa-brands-400.svg]
[192.168.43.21/tp/fontawesome-free-5.8.1-web/webfonts/fa-regular-400.svg]
[192.168.43.21/tp/fontawesome-free-5.8.1-web/webfonts/fa-solid-900.svg]
